
{ "products": [
    {
    "id": 1,
    "name": "Bed",
    "price": 1200,
    "url": "https://bigfoto.name/uploads/posts/2021-11/thumbs/1637669971_20-bigfoto-name-p-samaya-strannaya-mebel-27.jpg",
    "article": 46464,
    "color": "Natural wood"
    },
    {
    "id": 2,
    "name": "Sofa",
    "price": 3500,
    "url": "https://bigfoto.name/uploads/posts/2021-11/thumbs/1637669917_19-bigfoto-name-p-samaya-strannaya-mebel-25.jpg",
    "article": 75444,
    "color": "Black"
    },
    {
    "id": 3,
    "name": "Armchair",
    "price": 2987,
    "url": "https://bigfoto.name/uploads/posts/2021-11/thumbs/1637669925_9-bigfoto-name-p-samaya-strannaya-mebel-10.jpg",
    "article": 45754,
    "color": "White"
    },
    {
    "id": 4,
    "name": "Table",
    "price": 598,
    "url": "https://bigfoto.name/uploads/posts/2021-11/thumbs/1637669949_23-bigfoto-name-p-samaya-strannaya-mebel-33.jpg",
    "article": 75854,
    "color": "Natural wood"
    },
    {
    "id": 5,
    "name": "Wardrobe",
    "price": 1452,
    "url": "https://bigfoto.name/uploads/posts/2021-11/thumbs/1637669913_27-bigfoto-name-p-samaya-strannaya-mebel-38.jpg",
    "article": 44468,
    "color": "Black"
    },
    {
    "id": 6,
    "name": "Table",
    "price": 4758,
    "url": "https://bigfoto.name/uploads/posts/2021-11/thumbs/1637669924_28-bigfoto-name-p-samaya-strannaya-mebel-39.jpg",
    "article": 4574,
    "color": "Natural wood"
    },
    {
    "id": 7,
    "name": "Bench",
    "price": 2364,
    "url": "https://bigfoto.name/uploads/posts/2021-11/thumbs/1637669991_43-bigfoto-name-p-samaya-strannaya-mebel-61.jpg",
    "article": 4554455,
    "color": "Natural wood"
    },
    {
    "id": 8,
    "name": "Bed",
    "price": 1254,
    "url": "https://bigfoto.name/uploads/posts/2021-11/thumbs/1637669911_1-bigfoto-name-p-samaya-strannaya-mebel-1.jpg",
    "article": 798744,
    "color": "Natural wood"
    },
    {
    "id": 9,
    "name": "Bed",
    "price": 4256,
    "url": "https://bigfoto.name/uploads/posts/2021-11/thumbs/1637669932_61-bigfoto-name-p-samaya-strannaya-mebel-95.jpg",
    "article": 457864,
    "color": "White"
    },
    {
    "id": 10,
    "name": "Sofa",
    "price": 2154,
    "url": "https://bigfoto.name/uploads/posts/2021-11/thumbs/1637669959_29-bigfoto-name-p-samaya-strannaya-mebel-40.jpg",
    "article": 467678,
    "color": "Monochrome"
    },
    {
    "id": 11,
    "name": "Armchair",
    "price": 784,
    "url": "https://www.fubiz.net/wp-content/uploads/2014/12/Creative-Furniture-Design-3.jpg",
    "article": 46425,
    "color": "Black"
    },
    {
    "id": 12,
    "name": "Bed",
    "price": 5269,
    "url": "https://m.media-amazon.com/images/I/617v6WRo+8L._AC_UF894,1000_QL80_.jpg",
    "article": 21456,
    "color": "Blue"
    }
    
]
}

